<svg width="25" height="24" viewBox="0 0 25 24" fill="none" xmlns="http://www.w3.org/2000/svg">
<g clip-path="url(#clip0_378_1349)">
<path d="M14.75 11.75C15.4404 11.75 16 11.1904 16 10.5C16 9.80964 15.4404 9.25 14.75 9.25C14.0596 9.25 13.5 9.80964 13.5 10.5C13.5 11.1904 14.0596 11.75 14.75 11.75Z" fill="#BEBEBE"/>
<path d="M9.75 11.75C10.4404 11.75 11 11.1904 11 10.5C11 9.80964 10.4404 9.25 9.75 9.25C9.05964 9.25 8.5 9.80964 8.5 10.5C8.5 11.1904 9.05964 11.75 9.75 11.75Z" fill="#BEBEBE"/>
<path d="M23.19 11.34C22.94 9.83 21.83 8.6 20.38 8.17C19.85 7.05 19.1 6.07 18.19 5.26C16.61 3.85 14.53 3 12.25 3C9.97 3 7.89 3.85 6.31 5.26C5.39 6.07 4.64 7.06 4.12 8.17C2.67 8.6 1.56 9.82 1.31 11.34C1.27 11.55 1.25 11.77 1.25 12C1.25 12.23 1.27 12.45 1.31 12.66C1.56 14.17 2.67 15.4 4.12 15.83C4.64 16.94 5.39 17.92 6.29 18.72C7.87 20.14 9.96 21 12.25 21C14.54 21 16.63 20.14 18.22 18.72C19.12 17.92 19.87 16.93 20.39 15.83C21.83 15.4 22.94 14.18 23.19 12.66C23.23 12.45 23.25 12.23 23.25 12C23.25 11.77 23.23 11.55 23.19 11.34V11.34ZM19.25 14C19.15 14 19.06 13.98 18.96 13.97C18.76 14.64 18.47 15.26 18.1 15.83C16.85 17.74 14.7 19 12.25 19C9.8 19 7.65 17.74 6.4 15.83C6.03 15.26 5.74 14.64 5.54 13.97C5.44 13.98 5.35 14 5.25 14C4.15 14 3.25 13.1 3.25 12C3.25 10.9 4.15 10 5.25 10C5.35 10 5.44 10.02 5.54 10.03C5.74 9.36 6.03 8.74 6.4 8.17C7.65 6.26 9.8 5 12.25 5C14.7 5 16.85 6.26 18.1 8.17C18.47 8.74 18.76 9.36 18.96 10.03C19.06 10.02 19.15 10 19.25 10C20.35 10 21.25 10.9 21.25 12C21.25 13.1 20.35 14 19.25 14ZM12.25 17C14.26 17 15.99 15.77 16.75 14H7.75C8.51 15.77 10.24 17 12.25 17Z" fill="#BEBEBE"/>
</g>
<defs>
<clipPath id="clip0_378_1349">
<rect width="24" height="24" fill="white" transform="translate(0.25)"/>
</clipPath>
</defs>
</svg>
