<svg xmlns="http://www.w3.org/2000/svg" width="24" height="24" viewBox="0 0 24 24" fill="none">
  <path d="M5.7414 21.0024H3V18.25L14.2887 6.96127L17.0408 9.71334L5.7414 21.0024Z" stroke="#454545" stroke-width="2"/>
  <path d="M21.6785 6.49159C22.1118 6.05826 22.1118 5.35827 21.6785 4.92494L19.0785 2.32498C18.8709 2.11692 18.5891 2 18.2952 2C18.0013 2 17.7194 2.11692 17.5119 2.32498L16.1857 3.65118C15.7951 4.0417 15.7951 4.67487 16.1857 5.06539L18.938 7.81779C19.3286 8.20831 19.9617 8.20831 20.3523 7.81779L21.6785 6.49159Z" fill="#5FC8C3"/>
</svg>